[
    {
        "_id": "59804fa4244e90e2d7579424",
        "zone": "59702e5a32b9402b4ddf91c2",
        "name": "오디야",
        "category": "59704af9bac62b3028369427",
        "address": "수원시 팔달구 행궁동",
        "phone": "031-1234-5678",
        "created": "2017-07-20T09:49:46.624Z",
        "products": [
            {
                "productId": 1,
                "name": "아메리카노",
                "price": 3000
            },
            {
                "productId": 2,
                "name": "카페라떼",
                "price": 4000
            }
        ],
        "keywords": [
            "카페",
            "커피",
            "원두",
            "아메리카노",
            "카페라떼"
        ],
        "image": {
            "details": [
                {
                    "key": "../public/assets/shop-pics/details/restaurant01.jpg"
                },
                {
                    "key": "../public/assets/shop-pics/details/restaurant02.jpg"
                },
                {
                    "key": "../public/assets/shop-pics/details/restaurant03.jpeg"
                },
                {
                    "key": "../public/assets/shop-pics/details/restaurant04.jpg"
                },
                {
                    "key": "../public/assets/shop-pics/details/restaurant05.jpg"
                },
                {
                    "key": "../public/assets/shop-pics/details/restaurant06.jpg"
                },
                {
                    "key": "../public/assets/shop-pics/details/restaurant07.jpg"
                },
                {
                    "key": "../public/assets/shop-pics/details/restaurant08.jpg"
                },
                {
                    "key": "../public/assets/shop-pics/details/restaurant09.jpg"
                },
                {
                    "key": "../public/assets/shop-pics/details/restaurant10.png"
                }
            ],
            "logo": {
                "key": "../public/assets/shop-pics/9c6230-coffee-64.png"
            }
        },
        "location": {
            "coordinates": [
                127.016881,
                37.275301
            ],
            "type": "Point"
        },
        "owner": {
            "username": "Aaaaa"
        }
    },

    {
        "_id": "59805010244e90e2d7579425",
        "zone": "59702e5a32b9402b4ddf91c2",
        "name": "김밥지옥",
        "category": "59704ac1bac62b3028369425",
        "address": "수원시 팔달구 행궁동",
        "phone": "031-1234-5678",
        "created": "2017-07-20T09:54:18.554Z",
        "products": [
            {
                "productId": 1,
                "name": "김밥",
                "price": 2000
            },
            {
                "productId": 2,
                "name": "떡볶이",
                "price": 3500
            }
        ],
        "keywords": [
            "식당",
            "분식",
            "김밥",
            "떡볶이",
            "튀김"
        ],
        "image": {
            "details": [
                {
                    "key": "../public/assets/shop-pics/details/restaurant01.jpg"
                },
                {
                    "key": "../public/assets/shop-pics/details/restaurant02.jpg"
                },
                {
                    "key": "../public/assets/shop-pics/details/restaurant03.jpeg"
                },
                {
                    "key": "../public/assets/shop-pics/details/restaurant04.jpg"
                },
                {
                    "key": "../public/assets/shop-pics/details/restaurant05.jpg"
                },
                {
                    "key": "../public/assets/shop-pics/details/restaurant06.jpg"
                },
                {
                    "key": "../public/assets/shop-pics/details/restaurant07.jpg"
                },
                {
                    "key": "../public/assets/shop-pics/details/restaurant08.jpg"
                },
                {
                    "key": "../public/assets/shop-pics/details/restaurant09.jpg"
                },
                {
                    "key": "../public/assets/shop-pics/details/restaurant10.png"
                }
            ],
            "logo": {
                "key": "../public/assets/shop-pics/da3939-fork-64.png"
            }
        },
        "location": {
            "coordinates": [
                127.015571,
                37.275451
            ],
            "type": "Point"
        },
        "owner": {
            "username": "Bbbbb"
        }
    },

    {
        "_id": "5980503a244e90e2d7579426",
        "zone": "59702e5a32b9402b4ddf91c2",
        "name": "찌개동네",
        "category": "59704ac1bac62b3028369425",
        "address": "수원시 팔달구 행궁동",
        "phone": "031-1234-5678",
        "created": "2017-07-20T09:56:44.246Z",
        "products": [
            {
                "productId": 1,
                "name": "김치찌개",
                "price": 6000
            },
            {
                "productId": 2,
                "name": "된장찌개",
                "price": 6000
            }
        ],
        "keywords": [
            "식당",
            "백반",
            "김치찌개",
            "된장찌개",
            "부대찌개"
        ],
        "image": {
            "details": [
                {
                    "key": "../public/assets/shop-pics/details/restaurant01.jpg"
                },
                {
                    "key": "../public/assets/shop-pics/details/restaurant02.jpg"
                },
                {
                    "key": "../public/assets/shop-pics/details/restaurant03.jpeg"
                },
                {
                    "key": "../public/assets/shop-pics/details/restaurant04.jpg"
                },
                {
                    "key": "../public/assets/shop-pics/details/restaurant05.jpg"
                },
                {
                    "key": "../public/assets/shop-pics/details/restaurant06.jpg"
                },
                {
                    "key": "../public/assets/shop-pics/details/restaurant07.jpg"
                },
                {
                    "key": "../public/assets/shop-pics/details/restaurant08.jpg"
                },
                {
                    "key": "../public/assets/shop-pics/details/restaurant09.jpg"
                },
                {
                    "key": "../public/assets/shop-pics/details/restaurant10.png"
                }
            ],
            "logo": {
                "key": "../public/assets/shop-pics/636363-pot-64.png"
            }
        },
        "location": {
            "coordinates": [
                127.015131,
                37.273301
            ],
            "type": "Point"
        },
        "owner": {
            "username": "Ccccc"
        }
    },

    {
        "_id": "5980505e244e90e2d7579427",
        "zone": "59702e5a32b9402b4ddf91c2",
        "name": "이태리바게뜨",
        "category": "59704b01bac62b3028369428",
        "address": "수원시 팔달구 행궁동",
        "phone": "031-1234-5678",
        "created": "2017-07-20T09:59:14.860Z",
        "products": [
            {
                "productId": 1,
                "name": "치즈케이크",
                "price": 20000
            },
            {
                "productId": 2,
                "name": "옥수수식빵",
                "price": 1500
            }
        ],
        "keywords": [
            "제과점",
            "빵",
            "케이크",
            "샌드위치",
            "커피"
        ],
        "image": {
            "details": [
                {
                    "key": "../public/assets/shop-pics/details/restaurant01.jpg"
                },
                {
                    "key": "../public/assets/shop-pics/details/restaurant02.jpg"
                },
                {
                    "key": "../public/assets/shop-pics/details/restaurant03.jpeg"
                },
                {
                    "key": "../public/assets/shop-pics/details/restaurant04.jpg"
                },
                {
                    "key": "../public/assets/shop-pics/details/restaurant05.jpg"
                },
                {
                    "key": "../public/assets/shop-pics/details/restaurant06.jpg"
                },
                {
                    "key": "../public/assets/shop-pics/details/restaurant07.jpg"
                },
                {
                    "key": "../public/assets/shop-pics/details/restaurant08.jpg"
                },
                {
                    "key": "../public/assets/shop-pics/details/restaurant09.jpg"
                },
                {
                    "key": "../public/assets/shop-pics/details/restaurant10.png"
                }
            ],
            "logo": {
                "key": "../public/assets/shop-pics/6363ab-bread-64.png"
            }
        },
        "location": {
            "coordinates": [
                127.016421,
                37.276091
            ],
            "type": "Point"
        },
        "owner": {
            "username": "Ddddd"
        }
    },

    {
        "_id": "5980507d244e90e2d7579428",
        "zone": "59702e5a32b9402b4ddf91c2",
        "name": "원할아버지보쌈",
        "category": "59704ac1bac62b3028369425",
        "address": "수원시 팔달구 행궁동",
        "phone": "031-1234-5678",
        "created": "2017-07-20T10:02:48.422Z",
        "products": [
            {
                "productId": 1,
                "name": "보쌈",
                "price": 35000
            },
            {
                "productId": 2,
                "name": "족발",
                "price": 35000
            }
        ],
        "keywords": [
            "식당",
            "음식점",
            "보쌈",
            "족발",
            "냉채족발"
        ],
        "image": {
            "details": [
                {
                    "key": "../public/assets/shop-pics/details/restaurant01.jpg"
                },
                {
                    "key": "../public/assets/shop-pics/details/restaurant02.jpg"
                },
                {
                    "key": "../public/assets/shop-pics/details/restaurant03.jpeg"
                },
                {
                    "key": "../public/assets/shop-pics/details/restaurant04.jpg"
                },
                {
                    "key": "../public/assets/shop-pics/details/restaurant05.jpg"
                },
                {
                    "key": "../public/assets/shop-pics/details/restaurant06.jpg"
                },
                {
                    "key": "../public/assets/shop-pics/details/restaurant07.jpg"
                },
                {
                    "key": "../public/assets/shop-pics/details/restaurant08.jpg"
                },
                {
                    "key": "../public/assets/shop-pics/details/restaurant09.jpg"
                },
                {
                    "key": "../public/assets/shop-pics/details/restaurant10.png"
                }
            ],
            "logo": {
                "key": "../public/assets/shop-pics/d4cb3f-pig-64.png"
            }
        },
        "location": {
            "coordinates": [
                127.016991,
                37.273191
            ],
            "type": "Point"
        },
        "owner": {
            "username": "Eeeee"
        }
    },

    {
        "_id": "598050a0244e90e2d7579429",
        "zone": "59702e5a32b9402b4ddf91c2",
        "name": "뻑다방",
        "category": "59704af9bac62b3028369427",
        "address": "수원시 팔달구 행궁동",
        "phone": "031-1234-5678",
        "created": "2017-07-20T10:05:21.643Z",
        "products": [
            {
                "productId": 1,
                "name": "아메리카노",
                "price": 1500
            },
            {
                "productId": 2,
                "name": "카페라떼",
                "price": 2000
            }
        ],
        "keywords": [
            "카페",
            "커피",
            "원두",
            "아메리카노",
            "카페라떼"
        ],
        "image": {
            "details": [
                {
                    "key": "../public/assets/shop-pics/details/restaurant01.jpg"
                },
                {
                    "key": "../public/assets/shop-pics/details/restaurant02.jpg"
                },
                {
                    "key": "../public/assets/shop-pics/details/restaurant03.jpeg"
                },
                {
                    "key": "../public/assets/shop-pics/details/restaurant04.jpg"
                },
                {
                    "key": "../public/assets/shop-pics/details/restaurant05.jpg"
                },
                {
                    "key": "../public/assets/shop-pics/details/restaurant06.jpg"
                },
                {
                    "key": "../public/assets/shop-pics/details/restaurant07.jpg"
                },
                {
                    "key": "../public/assets/shop-pics/details/restaurant08.jpg"
                },
                {
                    "key": "../public/assets/shop-pics/details/restaurant09.jpg"
                },
                {
                    "key": "../public/assets/shop-pics/details/restaurant10.png"
                }
            ],
            "logo": {
                "key": "../public/assets/shop-pics/9c6230-coffee-64.png"
            }
        },
        "location": {
            "coordinates": [
                127.015581,
                37.274971
            ],
            "type": "Point"
        },
        "owner": {
            "username": "Fffff"
        }
    },

    {
        "_id": "598050ba244e90e2d757942a",
        "zone": "59702e5a32b9402b4ddf91c2",
        "name": "김씨네",
        "category": "59704ac1bac62b3028369425",
        "address": "수원시 팔달구 행궁동",
        "phone": "031-1234-5678",
        "created": "2017-07-20T10:08:06.671Z",
        "products": [
            {
                "productId": 1,
                "name": "김밥",
                "price": 3000
            },
            {
                "productId": 2,
                "name": "떡볶이",
                "price": 4000
            }
        ],
        "keywords": [
            "식당",
            "분식",
            "김밥",
            "떡볶이",
            "튀김"
        ],
        "image": {
            "details": [
                {
                    "key": "../public/assets/shop-pics/details/restaurant01.jpg"
                },
                {
                    "key": "../public/assets/shop-pics/details/restaurant02.jpg"
                },
                {
                    "key": "../public/assets/shop-pics/details/restaurant03.jpeg"
                },
                {
                    "key": "../public/assets/shop-pics/details/restaurant04.jpg"
                },
                {
                    "key": "../public/assets/shop-pics/details/restaurant05.jpg"
                },
                {
                    "key": "../public/assets/shop-pics/details/restaurant06.jpg"
                },
                {
                    "key": "../public/assets/shop-pics/details/restaurant07.jpg"
                },
                {
                    "key": "../public/assets/shop-pics/details/restaurant08.jpg"
                },
                {
                    "key": "../public/assets/shop-pics/details/restaurant09.jpg"
                },
                {
                    "key": "../public/assets/shop-pics/details/restaurant10.png"
                }
            ],
            "logo": {
                "key": "../public/assets/shop-pics/da3939-fork-64.png"
            }
        },
        "location": {
            "coordinates": [
                127.017191,
                37.275601
            ],
            "type": "Point"
        },
        "owner": {
            "username": "Ggggg"
        }
    },

    {
        "_id": "598050d4244e90e2d757942b",
        "zone": "59702e5a32b9402b4ddf91c2",
        "name": "백반나라",
        "category": "59704ac1bac62b3028369425",
        "address": "수원시 팔달구 행궁동",
        "phone": "031-1234-5678",
        "created": "2017-07-20T10:10:37.089Z",
        "products": [
            {
                "productId": 1,
                "name": "김치찌개",
                "price": 6000
            },
            {
                "productId": 2,
                "name": "된장찌개",
                "price": 6000
            }
        ],
        "keywords": [
            "식당",
            "달밥",
            "김치찌개",
            "된장찌개",
            "백반"
        ],
        "image": {
            "details": [
                {
                    "key": "../public/assets/shop-pics/details/restaurant01.jpg"
                },
                {
                    "key": "../public/assets/shop-pics/details/restaurant02.jpg"
                },
                {
                    "key": "../public/assets/shop-pics/details/restaurant03.jpeg"
                },
                {
                    "key": "../public/assets/shop-pics/details/restaurant04.jpg"
                },
                {
                    "key": "../public/assets/shop-pics/details/restaurant05.jpg"
                },
                {
                    "key": "../public/assets/shop-pics/details/restaurant06.jpg"
                },
                {
                    "key": "../public/assets/shop-pics/details/restaurant07.jpg"
                },
                {
                    "key": "../public/assets/shop-pics/details/restaurant08.jpg"
                },
                {
                    "key": "../public/assets/shop-pics/details/restaurant09.jpg"
                },
                {
                    "key": "../public/assets/shop-pics/details/restaurant10.png"
                }
            ],
            "logo": {
                "key": "../public/assets/shop-pics/636363-pot-64.png"
            }
        },
        "location": {
            "coordinates": [
                127.015861,
                37.275781
            ],
            "type": "Point"
        },
        "owner": {
            "username": "Hhhhh"
        }
    },

    {
        "_id": "598050f4244e90e2d757942c",
        "zone": "59702e5a32b9402b4ddf91c2",
        "name": "크레용베이커리",
        "category": "59704b01bac62b3028369428",
        "address": "수원시 팔달구 행궁동",
        "phone": "031-1234-5678",
        "created": "2017-07-20T10:13:00.229Z",
        "products": [
            {
                "productId": 1,
                "name": "치즈케이크",
                "price": 20000
            },
            {
                "productId": 2,
                "name": "옥수수식빵",
                "price": 1500
            }
        ],
        "keywords": [
            "제과점",
            "빵",
            "케이크",
            "샌드위치",
            "커피"
        ],
        "image": {
            "details": [
                {
                    "key": "../public/assets/shop-pics/details/restaurant01.jpg"
                },
                {
                    "key": "../public/assets/shop-pics/details/restaurant02.jpg"
                },
                {
                    "key": "../public/assets/shop-pics/details/restaurant03.jpeg"
                },
                {
                    "key": "../public/assets/shop-pics/details/restaurant04.jpg"
                },
                {
                    "key": "../public/assets/shop-pics/details/restaurant05.jpg"
                },
                {
                    "key": "../public/assets/shop-pics/details/restaurant06.jpg"
                },
                {
                    "key": "../public/assets/shop-pics/details/restaurant07.jpg"
                },
                {
                    "key": "../public/assets/shop-pics/details/restaurant08.jpg"
                },
                {
                    "key": "../public/assets/shop-pics/details/restaurant09.jpg"
                },
                {
                    "key": "../public/assets/shop-pics/details/restaurant10.png"
                }
            ],
            "logo": {
                "key": "../public/assets/shop-pics/6363ab-bread-64.png"
            }
        },
        "location": {
            "coordinates": [
                127.016421,
                37.273701
            ],
            "type": "Point"
        },
        "owner": {
            "username": "Iiiii"
        }
    },

    {
        "_id": "59805114244e90e2d757942d",
        "zone": "59702e5a32b9402b4ddf91c2",
        "name": "깡촌치킨",
        "category": "59704ac1bac62b3028369425",
        "address": "수원시 팔달구 행궁동",
        "phone": "031-1234-5678",
        "created": "2017-07-20T10:15:06.935Z",
        "products": [
            {
                "productId": 1,
                "name": "후라이드치킨",
                "price": 15000
            },
            {
                "productId": 2,
                "name": "양념치킨",
                "price": 15000
            }
        ],
        "keywords": [
            "호프",
            "맥주",
            "치킨",
            "후라이드치킨",
            "양념치킨"
        ],
        "image": {
            "details": [
                {
                    "key": "../public/assets/shop-pics/details/restaurant01.jpg"
                },
                {
                    "key": "../public/assets/shop-pics/details/restaurant02.jpg"
                },
                {
                    "key": "../public/assets/shop-pics/details/restaurant03.jpeg"
                },
                {
                    "key": "../public/assets/shop-pics/details/restaurant04.jpg"
                },
                {
                    "key": "../public/assets/shop-pics/details/restaurant05.jpg"
                },
                {
                    "key": "../public/assets/shop-pics/details/restaurant06.jpg"
                },
                {
                    "key": "../public/assets/shop-pics/details/restaurant07.jpg"
                },
                {
                    "key": "../public/assets/shop-pics/details/restaurant08.jpg"
                },
                {
                    "key": "../public/assets/shop-pics/details/restaurant09.jpg"
                },
                {
                    "key": "../public/assets/shop-pics/details/restaurant10.png"
                }
            ],
            "logo": {
                "key": "../public/assets/shop-pics/655732-chicken-64.png"
            }
        },
        "location": {
            "coordinates": [
                127.015911,
                37.272561
            ],
            "type": "Point"
        },
        "owner": {
            "username": "Jjjjj"
        }
    }
]